{
    "site": {
        "name": "あるかぶる案件ポータル",
        "name_en": "Alkable Projects Portal",
        "separator": "｜",
        "rootURL": "http://192.168.33.10",
        "userName" : "大塚 翼",

        "keywords": "",
        "desciption": "",

        "ogpTitle": "",
        "ogpDesciption": "",
        "ogpImage": "",

        "tel": "00-0000-0000"
    },

    "contents": {
        "identity": "",
        "logo": ""
    }
}